([('main.exe',
   'C:\\Users\\gosza\\kiv_test\\pythonProject\\calc\\build\\main\\main.exe',
   'EXECUTABLE'),
  ('python311.dll',
   'C:\\Program '
   'Files\\WindowsApps\\PythonSoftwareFoundation.Python.3.11_3.11.2288.0_x64__qbz5n2kfra8p0\\python311.dll',
   'BINARY'),
  ('pywin32_system32\\pywintypes311.dll',
   'C:\\Users\\gosza\\kiv_test\\pythonProject\\calc\\Lib\\site-packages\\pywin32_system32\\pywintypes311.dll',
   'BINARY'),
  ('pywin32_system32\\pythoncom311.dll',
   'C:\\Users\\gosza\\kiv_test\\pythonProject\\calc\\Lib\\site-packages\\pywin32_system32\\pythoncom311.dll',
   'BINARY'),
  ('_ctypes.pyd',
   'C:\\Program '
   'Files\\WindowsApps\\PythonSoftwareFoundation.Python.3.11_3.11.2288.0_x64__qbz5n2kfra8p0\\DLLs\\_ctypes.pyd',
   'EXTENSION'),
  ('_decimal.pyd',
   'C:\\Program '
   'Files\\WindowsApps\\PythonSoftwareFoundation.Python.3.11_3.11.2288.0_x64__qbz5n2kfra8p0\\DLLs\\_decimal.pyd',
   'EXTENSION'),
  ('unicodedata.pyd',
   'C:\\Program '
   'Files\\WindowsApps\\PythonSoftwareFoundation.Python.3.11_3.11.2288.0_x64__qbz5n2kfra8p0\\DLLs\\unicodedata.pyd',
   'EXTENSION'),
  ('select.pyd',
   'C:\\Program '
   'Files\\WindowsApps\\PythonSoftwareFoundation.Python.3.11_3.11.2288.0_x64__qbz5n2kfra8p0\\DLLs\\select.pyd',
   'EXTENSION'),
  ('_socket.pyd',
   'C:\\Program '
   'Files\\WindowsApps\\PythonSoftwareFoundation.Python.3.11_3.11.2288.0_x64__qbz5n2kfra8p0\\DLLs\\_socket.pyd',
   'EXTENSION'),
  ('_lzma.pyd',
   'C:\\Program '
   'Files\\WindowsApps\\PythonSoftwareFoundation.Python.3.11_3.11.2288.0_x64__qbz5n2kfra8p0\\DLLs\\_lzma.pyd',
   'EXTENSION'),
  ('_bz2.pyd',
   'C:\\Program '
   'Files\\WindowsApps\\PythonSoftwareFoundation.Python.3.11_3.11.2288.0_x64__qbz5n2kfra8p0\\DLLs\\_bz2.pyd',
   'EXTENSION'),
  ('_hashlib.pyd',
   'C:\\Program '
   'Files\\WindowsApps\\PythonSoftwareFoundation.Python.3.11_3.11.2288.0_x64__qbz5n2kfra8p0\\DLLs\\_hashlib.pyd',
   'EXTENSION'),
  ('win32\\win32trace.pyd',
   'C:\\Users\\gosza\\kiv_test\\pythonProject\\calc\\Lib\\site-packages\\win32\\win32trace.pyd',
   'EXTENSION'),
  ('Pythonwin\\win32ui.pyd',
   'C:\\Users\\gosza\\kiv_test\\pythonProject\\calc\\Lib\\site-packages\\Pythonwin\\win32ui.pyd',
   'EXTENSION'),
  ('win32\\_win32sysloader.pyd',
   'C:\\Users\\gosza\\kiv_test\\pythonProject\\calc\\Lib\\site-packages\\win32\\_win32sysloader.pyd',
   'EXTENSION'),
  ('win32\\win32api.pyd',
   'C:\\Users\\gosza\\kiv_test\\pythonProject\\calc\\Lib\\site-packages\\win32\\win32api.pyd',
   'EXTENSION'),
  ('_ssl.pyd',
   'C:\\Program '
   'Files\\WindowsApps\\PythonSoftwareFoundation.Python.3.11_3.11.2288.0_x64__qbz5n2kfra8p0\\DLLs\\_ssl.pyd',
   'EXTENSION'),
  ('_queue.pyd',
   'C:\\Program '
   'Files\\WindowsApps\\PythonSoftwareFoundation.Python.3.11_3.11.2288.0_x64__qbz5n2kfra8p0\\DLLs\\_queue.pyd',
   'EXTENSION'),
  ('win32com\\shell\\shell.pyd',
   'C:\\Users\\gosza\\kiv_test\\pythonProject\\calc\\Lib\\site-packages\\win32comext\\shell\\shell.pyd',
   'EXTENSION'),
  ('pyexpat.pyd',
   'C:\\Program '
   'Files\\WindowsApps\\PythonSoftwareFoundation.Python.3.11_3.11.2288.0_x64__qbz5n2kfra8p0\\DLLs\\pyexpat.pyd',
   'EXTENSION'),
  ('_multiprocessing.pyd',
   'C:\\Program '
   'Files\\WindowsApps\\PythonSoftwareFoundation.Python.3.11_3.11.2288.0_x64__qbz5n2kfra8p0\\DLLs\\_multiprocessing.pyd',
   'EXTENSION'),
  ('kivy\\graphics\\texture.cp311-win_amd64.pyd',
   'C:\\Users\\gosza\\kiv_test\\pythonProject\\calc\\Lib\\site-packages\\kivy\\graphics\\texture.cp311-win_amd64.pyd',
   'EXTENSION'),
  ('kivy\\core\\text\\text_layout.cp311-win_amd64.pyd',
   'C:\\Users\\gosza\\kiv_test\\pythonProject\\calc\\Lib\\site-packages\\kivy\\core\\text\\text_layout.cp311-win_amd64.pyd',
   'EXTENSION'),
  ('kivy\\graphics\\opengl.cp311-win_amd64.pyd',
   'C:\\Users\\gosza\\kiv_test\\pythonProject\\calc\\Lib\\site-packages\\kivy\\graphics\\opengl.cp311-win_amd64.pyd',
   'EXTENSION'),
  ('kivy\\graphics\\scissor_instructions.cp311-win_amd64.pyd',
   'C:\\Users\\gosza\\kiv_test\\pythonProject\\calc\\Lib\\site-packages\\kivy\\graphics\\scissor_instructions.cp311-win_amd64.pyd',
   'EXTENSION'),
  ('kivy\\graphics\\boxshadow.cp311-win_amd64.pyd',
   'C:\\Users\\gosza\\kiv_test\\pythonProject\\calc\\Lib\\site-packages\\kivy\\graphics\\boxshadow.cp311-win_amd64.pyd',
   'EXTENSION'),
  ('kivy\\graphics\\fbo.cp311-win_amd64.pyd',
   'C:\\Users\\gosza\\kiv_test\\pythonProject\\calc\\Lib\\site-packages\\kivy\\graphics\\fbo.cp311-win_amd64.pyd',
   'EXTENSION'),
  ('kivy\\graphics\\gl_instructions.cp311-win_amd64.pyd',
   'C:\\Users\\gosza\\kiv_test\\pythonProject\\calc\\Lib\\site-packages\\kivy\\graphics\\gl_instructions.cp311-win_amd64.pyd',
   'EXTENSION'),
  ('kivy\\graphics\\stencil_instructions.cp311-win_amd64.pyd',
   'C:\\Users\\gosza\\kiv_test\\pythonProject\\calc\\Lib\\site-packages\\kivy\\graphics\\stencil_instructions.cp311-win_amd64.pyd',
   'EXTENSION'),
  ('kivy\\graphics\\vertex_instructions.cp311-win_amd64.pyd',
   'C:\\Users\\gosza\\kiv_test\\pythonProject\\calc\\Lib\\site-packages\\kivy\\graphics\\vertex_instructions.cp311-win_amd64.pyd',
   'EXTENSION'),
  ('kivy\\graphics\\context_instructions.cp311-win_amd64.pyd',
   'C:\\Users\\gosza\\kiv_test\\pythonProject\\calc\\Lib\\site-packages\\kivy\\graphics\\context_instructions.cp311-win_amd64.pyd',
   'EXTENSION'),
  ('kivy\\graphics\\instructions.cp311-win_amd64.pyd',
   'C:\\Users\\gosza\\kiv_test\\pythonProject\\calc\\Lib\\site-packages\\kivy\\graphics\\instructions.cp311-win_amd64.pyd',
   'EXTENSION'),
  ('kivy\\graphics\\context.cp311-win_amd64.pyd',
   'C:\\Users\\gosza\\kiv_test\\pythonProject\\calc\\Lib\\site-packages\\kivy\\graphics\\context.cp311-win_amd64.pyd',
   'EXTENSION'),
  ('kivy\\_metrics.cp311-win_amd64.pyd',
   'C:\\Users\\gosza\\kiv_test\\pythonProject\\calc\\Lib\\site-packages\\kivy\\_metrics.cp311-win_amd64.pyd',
   'EXTENSION'),
  ('kivy\\graphics\\opengl_utils.cp311-win_amd64.pyd',
   'C:\\Users\\gosza\\kiv_test\\pythonProject\\calc\\Lib\\site-packages\\kivy\\graphics\\opengl_utils.cp311-win_amd64.pyd',
   'EXTENSION'),
  ('kivy\\weakproxy.cp311-win_amd64.pyd',
   'C:\\Users\\gosza\\kiv_test\\pythonProject\\calc\\Lib\\site-packages\\kivy\\weakproxy.cp311-win_amd64.pyd',
   'EXTENSION'),
  ('kivy\\graphics\\cgl.cp311-win_amd64.pyd',
   'C:\\Users\\gosza\\kiv_test\\pythonProject\\calc\\Lib\\site-packages\\kivy\\graphics\\cgl.cp311-win_amd64.pyd',
   'EXTENSION'),
  ('kivy\\graphics\\transformation.cp311-win_amd64.pyd',
   'C:\\Users\\gosza\\kiv_test\\pythonProject\\calc\\Lib\\site-packages\\kivy\\graphics\\transformation.cp311-win_amd64.pyd',
   'EXTENSION'),
  ('kivy\\_event.cp311-win_amd64.pyd',
   'C:\\Users\\gosza\\kiv_test\\pythonProject\\calc\\Lib\\site-packages\\kivy\\_event.cp311-win_amd64.pyd',
   'EXTENSION'),
  ('_overlapped.pyd',
   'C:\\Program '
   'Files\\WindowsApps\\PythonSoftwareFoundation.Python.3.11_3.11.2288.0_x64__qbz5n2kfra8p0\\DLLs\\_overlapped.pyd',
   'EXTENSION'),
  ('_asyncio.pyd',
   'C:\\Program '
   'Files\\WindowsApps\\PythonSoftwareFoundation.Python.3.11_3.11.2288.0_x64__qbz5n2kfra8p0\\DLLs\\_asyncio.pyd',
   'EXTENSION'),
  ('kivy\\_clock.cp311-win_amd64.pyd',
   'C:\\Users\\gosza\\kiv_test\\pythonProject\\calc\\Lib\\site-packages\\kivy\\_clock.cp311-win_amd64.pyd',
   'EXTENSION'),
  ('kivy\\properties.cp311-win_amd64.pyd',
   'C:\\Users\\gosza\\kiv_test\\pythonProject\\calc\\Lib\\site-packages\\kivy\\properties.cp311-win_amd64.pyd',
   'EXTENSION'),
  ('win32\\win32file.pyd',
   'C:\\Users\\gosza\\kiv_test\\pythonProject\\calc\\Lib\\site-packages\\win32\\win32file.pyd',
   'EXTENSION'),
  ('kivy\\lib\\gstplayer\\_gstplayer.cp311-win_amd64.pyd',
   'C:\\Users\\gosza\\kiv_test\\pythonProject\\calc\\Lib\\site-packages\\kivy\\lib\\gstplayer\\_gstplayer.cp311-win_amd64.pyd',
   'EXTENSION'),
  ('kivy\\graphics\\buffer.cp311-win_amd64.pyd',
   'C:\\Users\\gosza\\kiv_test\\pythonProject\\calc\\Lib\\site-packages\\kivy\\graphics\\buffer.cp311-win_amd64.pyd',
   'EXTENSION'),
  ('kivy\\graphics\\shader.cp311-win_amd64.pyd',
   'C:\\Users\\gosza\\kiv_test\\pythonProject\\calc\\Lib\\site-packages\\kivy\\graphics\\shader.cp311-win_amd64.pyd',
   'EXTENSION'),
  ('kivy\\core\\text\\_text_sdl2.cp311-win_amd64.pyd',
   'C:\\Users\\gosza\\kiv_test\\pythonProject\\calc\\Lib\\site-packages\\kivy\\core\\text\\_text_sdl2.cp311-win_amd64.pyd',
   'EXTENSION'),
  ('kivy\\graphics\\vbo.cp311-win_amd64.pyd',
   'C:\\Users\\gosza\\kiv_test\\pythonProject\\calc\\Lib\\site-packages\\kivy\\graphics\\vbo.cp311-win_amd64.pyd',
   'EXTENSION'),
  ('kivy\\graphics\\vertex.cp311-win_amd64.pyd',
   'C:\\Users\\gosza\\kiv_test\\pythonProject\\calc\\Lib\\site-packages\\kivy\\graphics\\vertex.cp311-win_amd64.pyd',
   'EXTENSION'),
  ('kivy\\graphics\\svg.cp311-win_amd64.pyd',
   'C:\\Users\\gosza\\kiv_test\\pythonProject\\calc\\Lib\\site-packages\\kivy\\graphics\\svg.cp311-win_amd64.pyd',
   'EXTENSION'),
  ('win32\\win32gui.pyd',
   'C:\\Users\\gosza\\kiv_test\\pythonProject\\calc\\Lib\\site-packages\\win32\\win32gui.pyd',
   'EXTENSION'),
  ('kivy\\graphics\\cgl_backend\\cgl_gl.cp311-win_amd64.pyd',
   'C:\\Users\\gosza\\kiv_test\\pythonProject\\calc\\Lib\\site-packages\\kivy\\graphics\\cgl_backend\\cgl_gl.cp311-win_amd64.pyd',
   'EXTENSION'),
  ('kivy\\graphics\\cgl_backend\\cgl_sdl2.cp311-win_amd64.pyd',
   'C:\\Users\\gosza\\kiv_test\\pythonProject\\calc\\Lib\\site-packages\\kivy\\graphics\\cgl_backend\\cgl_sdl2.cp311-win_amd64.pyd',
   'EXTENSION'),
  ('kivy\\core\\audio\\audio_sdl2.cp311-win_amd64.pyd',
   'C:\\Users\\gosza\\kiv_test\\pythonProject\\calc\\Lib\\site-packages\\kivy\\core\\audio\\audio_sdl2.cp311-win_amd64.pyd',
   'EXTENSION'),
  ('kivy\\core\\image\\_img_sdl2.cp311-win_amd64.pyd',
   'C:\\Users\\gosza\\kiv_test\\pythonProject\\calc\\Lib\\site-packages\\kivy\\core\\image\\_img_sdl2.cp311-win_amd64.pyd',
   'EXTENSION'),
  ('kivy\\core\\window\\_window_sdl2.cp311-win_amd64.pyd',
   'C:\\Users\\gosza\\kiv_test\\pythonProject\\calc\\Lib\\site-packages\\kivy\\core\\window\\_window_sdl2.cp311-win_amd64.pyd',
   'EXTENSION'),
  ('kivy\\graphics\\compiler.cp311-win_amd64.pyd',
   'C:\\Users\\gosza\\kiv_test\\pythonProject\\calc\\Lib\\site-packages\\kivy\\graphics\\compiler.cp311-win_amd64.pyd',
   'EXTENSION'),
  ('kivy\\graphics\\cgl_backend\\cgl_glew.cp311-win_amd64.pyd',
   'C:\\Users\\gosza\\kiv_test\\pythonProject\\calc\\Lib\\site-packages\\kivy\\graphics\\cgl_backend\\cgl_glew.cp311-win_amd64.pyd',
   'EXTENSION'),
  ('_elementtree.pyd',
   'C:\\Program '
   'Files\\WindowsApps\\PythonSoftwareFoundation.Python.3.11_3.11.2288.0_x64__qbz5n2kfra8p0\\DLLs\\_elementtree.pyd',
   'EXTENSION'),
  ('kivy\\core\\window\\window_info.cp311-win_amd64.pyd',
   'C:\\Users\\gosza\\kiv_test\\pythonProject\\calc\\Lib\\site-packages\\kivy\\core\\window\\window_info.cp311-win_amd64.pyd',
   'EXTENSION'),
  ('kivy\\graphics\\tesselator.cp311-win_amd64.pyd',
   'C:\\Users\\gosza\\kiv_test\\pythonProject\\calc\\Lib\\site-packages\\kivy\\graphics\\tesselator.cp311-win_amd64.pyd',
   'EXTENSION'),
  ('kivy\\graphics\\cgl_backend\\cgl_debug.cp311-win_amd64.pyd',
   'C:\\Users\\gosza\\kiv_test\\pythonProject\\calc\\Lib\\site-packages\\kivy\\graphics\\cgl_backend\\cgl_debug.cp311-win_amd64.pyd',
   'EXTENSION'),
  ('kivy\\graphics\\cgl_backend\\cgl_mock.cp311-win_amd64.pyd',
   'C:\\Users\\gosza\\kiv_test\\pythonProject\\calc\\Lib\\site-packages\\kivy\\graphics\\cgl_backend\\cgl_mock.cp311-win_amd64.pyd',
   'EXTENSION'),
  ('kivy\\core\\clipboard\\_clipboard_sdl2.cp311-win_amd64.pyd',
   'C:\\Users\\gosza\\kiv_test\\pythonProject\\calc\\Lib\\site-packages\\kivy\\core\\clipboard\\_clipboard_sdl2.cp311-win_amd64.pyd',
   'EXTENSION'),
  ('VCRUNTIME140.dll',
   'C:\\Program '
   'Files\\WindowsApps\\PythonSoftwareFoundation.Python.3.11_3.11.2288.0_x64__qbz5n2kfra8p0\\VCRUNTIME140.dll',
   'BINARY'),
  ('VCRUNTIME140_1.dll',
   'C:\\Program '
   'Files\\WindowsApps\\PythonSoftwareFoundation.Python.3.11_3.11.2288.0_x64__qbz5n2kfra8p0\\VCRUNTIME140_1.dll',
   'BINARY'),
  ('libffi-8.dll',
   'C:\\Program '
   'Files\\WindowsApps\\PythonSoftwareFoundation.Python.3.11_3.11.2288.0_x64__qbz5n2kfra8p0\\DLLs\\libffi-8.dll',
   'BINARY'),
  ('libcrypto-3.dll',
   'C:\\Program '
   'Files\\WindowsApps\\PythonSoftwareFoundation.Python.3.11_3.11.2288.0_x64__qbz5n2kfra8p0\\DLLs\\libcrypto-3.dll',
   'BINARY'),
  ('Pythonwin\\mfc140u.dll',
   'C:\\Users\\gosza\\kiv_test\\pythonProject\\calc\\Lib\\site-packages\\Pythonwin\\mfc140u.dll',
   'BINARY'),
  ('libssl-3.dll',
   'C:\\Program '
   'Files\\WindowsApps\\PythonSoftwareFoundation.Python.3.11_3.11.2288.0_x64__qbz5n2kfra8p0\\DLLs\\libssl-3.dll',
   'BINARY'),
  ('SDL2.dll',
   'C:\\Users\\gosza\\kiv_test\\pythonProject\\calc\\share\\sdl2\\bin\\SDL2.dll',
   'BINARY'),
  ('SDL2_ttf.dll',
   'C:\\Users\\gosza\\kiv_test\\pythonProject\\calc\\share\\sdl2\\bin\\SDL2_ttf.dll',
   'BINARY'),
  ('glew32.dll',
   'C:\\Users\\gosza\\kiv_test\\pythonProject\\calc\\share\\glew\\bin\\glew32.dll',
   'BINARY'),
  ('SDL2_mixer.dll',
   'C:\\Users\\gosza\\kiv_test\\pythonProject\\calc\\share\\sdl2\\bin\\SDL2_mixer.dll',
   'BINARY'),
  ('SDL2_image.dll',
   'C:\\Users\\gosza\\kiv_test\\pythonProject\\calc\\share\\sdl2\\bin\\SDL2_image.dll',
   'BINARY'),
  ('base_library.zip',
   'C:\\Users\\gosza\\kiv_test\\pythonProject\\calc\\build\\main\\base_library.zip',
   'DATA'),
  ('certifi\\py.typed',
   'C:\\Users\\gosza\\kiv_test\\pythonProject\\calc\\Lib\\site-packages\\certifi\\py.typed',
   'DATA'),
  ('certifi\\cacert.pem',
   'C:\\Users\\gosza\\kiv_test\\pythonProject\\calc\\Lib\\site-packages\\certifi\\cacert.pem',
   'DATA'),
  ('kivy_install\\data\\keyboards\\en_US.json',
   'C:\\Users\\gosza\\kiv_test\\pythonProject\\calc\\Lib\\site-packages\\kivy\\data\\keyboards\\en_US.json',
   'DATA'),
  ('kivy_install\\data\\images\\defaultshape.png',
   'C:\\Users\\gosza\\kiv_test\\pythonProject\\calc\\Lib\\site-packages\\kivy\\data\\images\\defaultshape.png',
   'DATA'),
  ('kivy_install\\modules\\showborder.py',
   'C:\\Users\\gosza\\kiv_test\\pythonProject\\calc\\Lib\\site-packages\\kivy\\modules\\showborder.py',
   'DATA'),
  ('kivy_install\\modules\\monitor.py',
   'C:\\Users\\gosza\\kiv_test\\pythonProject\\calc\\Lib\\site-packages\\kivy\\modules\\monitor.py',
   'DATA'),
  ('kivy_install\\data\\settings_kivy.json',
   'C:\\Users\\gosza\\kiv_test\\pythonProject\\calc\\Lib\\site-packages\\kivy\\data\\settings_kivy.json',
   'DATA'),
  ('kivy_install\\modules\\__pycache__\\monitor.cpython-311.pyc',
   'C:\\Users\\gosza\\kiv_test\\pythonProject\\calc\\Lib\\site-packages\\kivy\\modules\\__pycache__\\monitor.cpython-311.pyc',
   'DATA'),
  ('kivy_install\\modules\\__pycache__\\showborder.cpython-311.pyc',
   'C:\\Users\\gosza\\kiv_test\\pythonProject\\calc\\Lib\\site-packages\\kivy\\modules\\__pycache__\\showborder.cpython-311.pyc',
   'DATA'),
  ('kivy_install\\data\\logo\\kivy-icon-64.png',
   'C:\\Users\\gosza\\kiv_test\\pythonProject\\calc\\Lib\\site-packages\\kivy\\data\\logo\\kivy-icon-64.png',
   'DATA'),
  ('kivy_install\\data\\style.kv',
   'C:\\Users\\gosza\\kiv_test\\pythonProject\\calc\\Lib\\site-packages\\kivy\\data\\style.kv',
   'DATA'),
  ('kivy_install\\data\\images\\image-loading.zip',
   'C:\\Users\\gosza\\kiv_test\\pythonProject\\calc\\Lib\\site-packages\\kivy\\data\\images\\image-loading.zip',
   'DATA'),
  ('kivy_install\\data\\fonts\\Roboto-Italic.ttf',
   'C:\\Users\\gosza\\kiv_test\\pythonProject\\calc\\Lib\\site-packages\\kivy\\data\\fonts\\Roboto-Italic.ttf',
   'DATA'),
  ('kivy_install\\modules\\__pycache__\\recorder.cpython-311.pyc',
   'C:\\Users\\gosza\\kiv_test\\pythonProject\\calc\\Lib\\site-packages\\kivy\\modules\\__pycache__\\recorder.cpython-311.pyc',
   'DATA'),
  ('kivy_install\\data\\keyboards\\de_CH.json',
   'C:\\Users\\gosza\\kiv_test\\pythonProject\\calc\\Lib\\site-packages\\kivy\\data\\keyboards\\de_CH.json',
   'DATA'),
  ('kivy_install\\data\\images\\image-loading.gif',
   'C:\\Users\\gosza\\kiv_test\\pythonProject\\calc\\Lib\\site-packages\\kivy\\data\\images\\image-loading.gif',
   'DATA'),
  ('kivy_install\\data\\glsl\\default.vs',
   'C:\\Users\\gosza\\kiv_test\\pythonProject\\calc\\Lib\\site-packages\\kivy\\data\\glsl\\default.vs',
   'DATA'),
  ('kivy_install\\data\\images\\defaulttheme.atlas',
   'C:\\Users\\gosza\\kiv_test\\pythonProject\\calc\\Lib\\site-packages\\kivy\\data\\images\\defaulttheme.atlas',
   'DATA'),
  ('kivy_install\\data\\logo\\kivy-icon-24.png',
   'C:\\Users\\gosza\\kiv_test\\pythonProject\\calc\\Lib\\site-packages\\kivy\\data\\logo\\kivy-icon-24.png',
   'DATA'),
  ('kivy_install\\modules\\__pycache__\\inspector.cpython-311.pyc',
   'C:\\Users\\gosza\\kiv_test\\pythonProject\\calc\\Lib\\site-packages\\kivy\\modules\\__pycache__\\inspector.cpython-311.pyc',
   'DATA'),
  ('kivy_install\\data\\fonts\\Roboto-BoldItalic.ttf',
   'C:\\Users\\gosza\\kiv_test\\pythonProject\\calc\\Lib\\site-packages\\kivy\\data\\fonts\\Roboto-BoldItalic.ttf',
   'DATA'),
  ('kivy_install\\modules\\__pycache__\\touchring.cpython-311.pyc',
   'C:\\Users\\gosza\\kiv_test\\pythonProject\\calc\\Lib\\site-packages\\kivy\\modules\\__pycache__\\touchring.cpython-311.pyc',
   'DATA'),
  ('kivy_install\\data\\logo\\kivy-icon-256.png',
   'C:\\Users\\gosza\\kiv_test\\pythonProject\\calc\\Lib\\site-packages\\kivy\\data\\logo\\kivy-icon-256.png',
   'DATA'),
  ('kivy_install\\data\\logo\\kivy-icon-64.ico',
   'C:\\Users\\gosza\\kiv_test\\pythonProject\\calc\\Lib\\site-packages\\kivy\\data\\logo\\kivy-icon-64.ico',
   'DATA'),
  ('kivy_install\\modules\\__pycache__\\keybinding.cpython-311.pyc',
   'C:\\Users\\gosza\\kiv_test\\pythonProject\\calc\\Lib\\site-packages\\kivy\\modules\\__pycache__\\keybinding.cpython-311.pyc',
   'DATA'),
  ('kivy_install\\modules\\__pycache__\\webdebugger.cpython-311.pyc',
   'C:\\Users\\gosza\\kiv_test\\pythonProject\\calc\\Lib\\site-packages\\kivy\\modules\\__pycache__\\webdebugger.cpython-311.pyc',
   'DATA'),
  ('kivy_install\\modules\\__pycache__\\__init__.cpython-311.pyc',
   'C:\\Users\\gosza\\kiv_test\\pythonProject\\calc\\Lib\\site-packages\\kivy\\modules\\__pycache__\\__init__.cpython-311.pyc',
   'DATA'),
  ('kivy_install\\data\\images\\cursor.png',
   'C:\\Users\\gosza\\kiv_test\\pythonProject\\calc\\Lib\\site-packages\\kivy\\data\\images\\cursor.png',
   'DATA'),
  ('kivy_install\\data\\glsl\\default.png',
   'C:\\Users\\gosza\\kiv_test\\pythonProject\\calc\\Lib\\site-packages\\kivy\\data\\glsl\\default.png',
   'DATA'),
  ('kivy_install\\data\\logo\\kivy-icon-512.png',
   'C:\\Users\\gosza\\kiv_test\\pythonProject\\calc\\Lib\\site-packages\\kivy\\data\\logo\\kivy-icon-512.png',
   'DATA'),
  ('kivy_install\\modules\\__pycache__\\joycursor.cpython-311.pyc',
   'C:\\Users\\gosza\\kiv_test\\pythonProject\\calc\\Lib\\site-packages\\kivy\\modules\\__pycache__\\joycursor.cpython-311.pyc',
   'DATA'),
  ('kivy_install\\data\\images\\background.jpg',
   'C:\\Users\\gosza\\kiv_test\\pythonProject\\calc\\Lib\\site-packages\\kivy\\data\\images\\background.jpg',
   'DATA'),
  ('kivy_install\\data\\glsl\\default.fs',
   'C:\\Users\\gosza\\kiv_test\\pythonProject\\calc\\Lib\\site-packages\\kivy\\data\\glsl\\default.fs',
   'DATA'),
  ('kivy_install\\data\\logo\\kivy-icon-48.png',
   'C:\\Users\\gosza\\kiv_test\\pythonProject\\calc\\Lib\\site-packages\\kivy\\data\\logo\\kivy-icon-48.png',
   'DATA'),
  ('kivy_install\\data\\fonts\\DejaVuSans.ttf',
   'C:\\Users\\gosza\\kiv_test\\pythonProject\\calc\\Lib\\site-packages\\kivy\\data\\fonts\\DejaVuSans.ttf',
   'DATA'),
  ('kivy_install\\modules\\joycursor.py',
   'C:\\Users\\gosza\\kiv_test\\pythonProject\\calc\\Lib\\site-packages\\kivy\\modules\\joycursor.py',
   'DATA'),
  ('kivy_install\\modules\\__init__.py',
   'C:\\Users\\gosza\\kiv_test\\pythonProject\\calc\\Lib\\site-packages\\kivy\\modules\\__init__.py',
   'DATA'),
  ('kivy_install\\data\\glsl\\header.vs',
   'C:\\Users\\gosza\\kiv_test\\pythonProject\\calc\\Lib\\site-packages\\kivy\\data\\glsl\\header.vs',
   'DATA'),
  ('kivy_install\\modules\\inspector.py',
   'C:\\Users\\gosza\\kiv_test\\pythonProject\\calc\\Lib\\site-packages\\kivy\\modules\\inspector.py',
   'DATA'),
  ('kivy_install\\data\\keyboards\\qwerty.json',
   'C:\\Users\\gosza\\kiv_test\\pythonProject\\calc\\Lib\\site-packages\\kivy\\data\\keyboards\\qwerty.json',
   'DATA'),
  ('kivy_install\\data\\images\\testpattern.png',
   'C:\\Users\\gosza\\kiv_test\\pythonProject\\calc\\Lib\\site-packages\\kivy\\data\\images\\testpattern.png',
   'DATA'),
  ('kivy_install\\modules\\_webdebugger.py',
   'C:\\Users\\gosza\\kiv_test\\pythonProject\\calc\\Lib\\site-packages\\kivy\\modules\\_webdebugger.py',
   'DATA'),
  ('kivy_install\\data\\fonts\\RobotoMono-Regular.ttf',
   'C:\\Users\\gosza\\kiv_test\\pythonProject\\calc\\Lib\\site-packages\\kivy\\data\\fonts\\RobotoMono-Regular.ttf',
   'DATA'),
  ('kivy_install\\data\\keyboards\\de.json',
   'C:\\Users\\gosza\\kiv_test\\pythonProject\\calc\\Lib\\site-packages\\kivy\\data\\keyboards\\de.json',
   'DATA'),
  ('kivy_install\\data\\logo\\kivy-icon-16.png',
   'C:\\Users\\gosza\\kiv_test\\pythonProject\\calc\\Lib\\site-packages\\kivy\\data\\logo\\kivy-icon-16.png',
   'DATA'),
  ('kivy_install\\modules\\recorder.py',
   'C:\\Users\\gosza\\kiv_test\\pythonProject\\calc\\Lib\\site-packages\\kivy\\modules\\recorder.py',
   'DATA'),
  ('kivy_install\\modules\\screen.py',
   'C:\\Users\\gosza\\kiv_test\\pythonProject\\calc\\Lib\\site-packages\\kivy\\modules\\screen.py',
   'DATA'),
  ('kivy_install\\modules\\keybinding.py',
   'C:\\Users\\gosza\\kiv_test\\pythonProject\\calc\\Lib\\site-packages\\kivy\\modules\\keybinding.py',
   'DATA'),
  ('kivy_install\\data\\images\\defaulttheme-0.png',
   'C:\\Users\\gosza\\kiv_test\\pythonProject\\calc\\Lib\\site-packages\\kivy\\data\\images\\defaulttheme-0.png',
   'DATA'),
  ('kivy_install\\modules\\__pycache__\\_webdebugger.cpython-311.pyc',
   'C:\\Users\\gosza\\kiv_test\\pythonProject\\calc\\Lib\\site-packages\\kivy\\modules\\__pycache__\\_webdebugger.cpython-311.pyc',
   'DATA'),
  ('kivy_install\\data\\glsl\\header.fs',
   'C:\\Users\\gosza\\kiv_test\\pythonProject\\calc\\Lib\\site-packages\\kivy\\data\\glsl\\header.fs',
   'DATA'),
  ('kivy_install\\modules\\cursor.py',
   'C:\\Users\\gosza\\kiv_test\\pythonProject\\calc\\Lib\\site-packages\\kivy\\modules\\cursor.py',
   'DATA'),
  ('kivy_install\\modules\\__pycache__\\screen.cpython-311.pyc',
   'C:\\Users\\gosza\\kiv_test\\pythonProject\\calc\\Lib\\site-packages\\kivy\\modules\\__pycache__\\screen.cpython-311.pyc',
   'DATA'),
  ('kivy_install\\data\\fonts\\Roboto-Regular.ttf',
   'C:\\Users\\gosza\\kiv_test\\pythonProject\\calc\\Lib\\site-packages\\kivy\\data\\fonts\\Roboto-Regular.ttf',
   'DATA'),
  ('kivy_install\\data\\keyboards\\azerty.json',
   'C:\\Users\\gosza\\kiv_test\\pythonProject\\calc\\Lib\\site-packages\\kivy\\data\\keyboards\\azerty.json',
   'DATA'),
  ('kivy_install\\modules\\__pycache__\\console.cpython-311.pyc',
   'C:\\Users\\gosza\\kiv_test\\pythonProject\\calc\\Lib\\site-packages\\kivy\\modules\\__pycache__\\console.cpython-311.pyc',
   'DATA'),
  ('kivy_install\\data\\fonts\\Roboto-Bold.ttf',
   'C:\\Users\\gosza\\kiv_test\\pythonProject\\calc\\Lib\\site-packages\\kivy\\data\\fonts\\Roboto-Bold.ttf',
   'DATA'),
  ('kivy_install\\data\\keyboards\\qwertz.json',
   'C:\\Users\\gosza\\kiv_test\\pythonProject\\calc\\Lib\\site-packages\\kivy\\data\\keyboards\\qwertz.json',
   'DATA'),
  ('kivy_install\\data\\logo\\kivy-icon-32.png',
   'C:\\Users\\gosza\\kiv_test\\pythonProject\\calc\\Lib\\site-packages\\kivy\\data\\logo\\kivy-icon-32.png',
   'DATA'),
  ('kivy_install\\modules\\touchring.py',
   'C:\\Users\\gosza\\kiv_test\\pythonProject\\calc\\Lib\\site-packages\\kivy\\modules\\touchring.py',
   'DATA'),
  ('kivy_install\\modules\\console.py',
   'C:\\Users\\gosza\\kiv_test\\pythonProject\\calc\\Lib\\site-packages\\kivy\\modules\\console.py',
   'DATA'),
  ('kivy_install\\modules\\webdebugger.py',
   'C:\\Users\\gosza\\kiv_test\\pythonProject\\calc\\Lib\\site-packages\\kivy\\modules\\webdebugger.py',
   'DATA'),
  ('kivy_install\\data\\keyboards\\es_ES.json',
   'C:\\Users\\gosza\\kiv_test\\pythonProject\\calc\\Lib\\site-packages\\kivy\\data\\keyboards\\es_ES.json',
   'DATA'),
  ('kivy_install\\data\\keyboards\\fr_CH.json',
   'C:\\Users\\gosza\\kiv_test\\pythonProject\\calc\\Lib\\site-packages\\kivy\\data\\keyboards\\fr_CH.json',
   'DATA'),
  ('kivy_install\\modules\\__pycache__\\cursor.cpython-311.pyc',
   'C:\\Users\\gosza\\kiv_test\\pythonProject\\calc\\Lib\\site-packages\\kivy\\modules\\__pycache__\\cursor.cpython-311.pyc',
   'DATA'),
  ('kivy_install\\data\\logo\\kivy-icon-128.png',
   'C:\\Users\\gosza\\kiv_test\\pythonProject\\calc\\Lib\\site-packages\\kivy\\data\\logo\\kivy-icon-128.png',
   'DATA'),
  ('docutils\\parsers\\rst\\include\\s5defs.txt',
   'C:\\Users\\gosza\\kiv_test\\pythonProject\\calc\\Lib\\site-packages\\docutils\\parsers\\rst\\include\\s5defs.txt',
   'DATA'),
  ('docutils\\writers\\html5_polyglot\\responsive.css',
   'C:\\Users\\gosza\\kiv_test\\pythonProject\\calc\\Lib\\site-packages\\docutils\\writers\\html5_polyglot\\responsive.css',
   'DATA'),
  ('docutils\\parsers\\rst\\include\\isoamsb.txt',
   'C:\\Users\\gosza\\kiv_test\\pythonProject\\calc\\Lib\\site-packages\\docutils\\parsers\\rst\\include\\isoamsb.txt',
   'DATA'),
  ('docutils\\parsers\\rst\\include\\isoamso.txt',
   'C:\\Users\\gosza\\kiv_test\\pythonProject\\calc\\Lib\\site-packages\\docutils\\parsers\\rst\\include\\isoamso.txt',
   'DATA'),
  ('docutils\\parsers\\rst\\include\\isolat2.txt',
   'C:\\Users\\gosza\\kiv_test\\pythonProject\\calc\\Lib\\site-packages\\docutils\\parsers\\rst\\include\\isolat2.txt',
   'DATA'),
  ('docutils\\parsers\\rst\\include\\mmlextra.txt',
   'C:\\Users\\gosza\\kiv_test\\pythonProject\\calc\\Lib\\site-packages\\docutils\\parsers\\rst\\include\\mmlextra.txt',
   'DATA'),
  ('docutils\\parsers\\rst\\include\\mmlalias.txt',
   'C:\\Users\\gosza\\kiv_test\\pythonProject\\calc\\Lib\\site-packages\\docutils\\parsers\\rst\\include\\mmlalias.txt',
   'DATA'),
  ('docutils\\parsers\\rst\\include\\isodia.txt',
   'C:\\Users\\gosza\\kiv_test\\pythonProject\\calc\\Lib\\site-packages\\docutils\\parsers\\rst\\include\\isodia.txt',
   'DATA'),
  ('docutils\\writers\\latex2e\\xelatex.tex',
   'C:\\Users\\gosza\\kiv_test\\pythonProject\\calc\\Lib\\site-packages\\docutils\\writers\\latex2e\\xelatex.tex',
   'DATA'),
  ('docutils\\parsers\\rst\\include\\isomscr-wide.txt',
   'C:\\Users\\gosza\\kiv_test\\pythonProject\\calc\\Lib\\site-packages\\docutils\\parsers\\rst\\include\\isomscr-wide.txt',
   'DATA'),
  ('docutils\\writers\\latex2e\\titlingpage.tex',
   'C:\\Users\\gosza\\kiv_test\\pythonProject\\calc\\Lib\\site-packages\\docutils\\writers\\latex2e\\titlingpage.tex',
   'DATA'),
  ('docutils\\parsers\\rst\\include\\isomopf.txt',
   'C:\\Users\\gosza\\kiv_test\\pythonProject\\calc\\Lib\\site-packages\\docutils\\parsers\\rst\\include\\isomopf.txt',
   'DATA'),
  ('docutils\\parsers\\rst\\include\\xhtml1-symbol.txt',
   'C:\\Users\\gosza\\kiv_test\\pythonProject\\calc\\Lib\\site-packages\\docutils\\parsers\\rst\\include\\xhtml1-symbol.txt',
   'DATA'),
  ('docutils\\writers\\s5_html\\themes\\small-black\\pretty.css',
   'C:\\Users\\gosza\\kiv_test\\pythonProject\\calc\\Lib\\site-packages\\docutils\\writers\\s5_html\\themes\\small-black\\pretty.css',
   'DATA'),
  ('docutils\\writers\\s5_html\\themes\\default\\outline.css',
   'C:\\Users\\gosza\\kiv_test\\pythonProject\\calc\\Lib\\site-packages\\docutils\\writers\\s5_html\\themes\\default\\outline.css',
   'DATA'),
  ('docutils\\writers\\html5_polyglot\\template.txt',
   'C:\\Users\\gosza\\kiv_test\\pythonProject\\calc\\Lib\\site-packages\\docutils\\writers\\html5_polyglot\\template.txt',
   'DATA'),
  ('docutils\\parsers\\rst\\include\\mmlextra-wide.txt',
   'C:\\Users\\gosza\\kiv_test\\pythonProject\\calc\\Lib\\site-packages\\docutils\\parsers\\rst\\include\\mmlextra-wide.txt',
   'DATA'),
  ('docutils\\parsers\\rst\\include\\isomscr.txt',
   'C:\\Users\\gosza\\kiv_test\\pythonProject\\calc\\Lib\\site-packages\\docutils\\parsers\\rst\\include\\isomscr.txt',
   'DATA'),
  ('docutils\\parsers\\rst\\include\\isogrk2.txt',
   'C:\\Users\\gosza\\kiv_test\\pythonProject\\calc\\Lib\\site-packages\\docutils\\parsers\\rst\\include\\isogrk2.txt',
   'DATA'),
  ('docutils\\parsers\\rst\\include\\README.txt',
   'C:\\Users\\gosza\\kiv_test\\pythonProject\\calc\\Lib\\site-packages\\docutils\\parsers\\rst\\include\\README.txt',
   'DATA'),
  ('docutils\\writers\\s5_html\\themes\\small-white\\framing.css',
   'C:\\Users\\gosza\\kiv_test\\pythonProject\\calc\\Lib\\site-packages\\docutils\\writers\\s5_html\\themes\\small-white\\framing.css',
   'DATA'),
  ('docutils\\parsers\\rst\\include\\isocyr2.txt',
   'C:\\Users\\gosza\\kiv_test\\pythonProject\\calc\\Lib\\site-packages\\docutils\\parsers\\rst\\include\\isocyr2.txt',
   'DATA'),
  ('docutils\\parsers\\rst\\include\\isotech.txt',
   'C:\\Users\\gosza\\kiv_test\\pythonProject\\calc\\Lib\\site-packages\\docutils\\parsers\\rst\\include\\isotech.txt',
   'DATA'),
  ('docutils\\writers\\s5_html\\themes\\medium-black\\pretty.css',
   'C:\\Users\\gosza\\kiv_test\\pythonProject\\calc\\Lib\\site-packages\\docutils\\writers\\s5_html\\themes\\medium-black\\pretty.css',
   'DATA'),
  ('docutils\\writers\\s5_html\\themes\\big-white\\pretty.css',
   'C:\\Users\\gosza\\kiv_test\\pythonProject\\calc\\Lib\\site-packages\\docutils\\writers\\s5_html\\themes\\big-white\\pretty.css',
   'DATA'),
  ('docutils\\parsers\\rst\\include\\isomfrk-wide.txt',
   'C:\\Users\\gosza\\kiv_test\\pythonProject\\calc\\Lib\\site-packages\\docutils\\parsers\\rst\\include\\isomfrk-wide.txt',
   'DATA'),
  ('docutils\\parsers\\rst\\include\\isogrk4-wide.txt',
   'C:\\Users\\gosza\\kiv_test\\pythonProject\\calc\\Lib\\site-packages\\docutils\\parsers\\rst\\include\\isogrk4-wide.txt',
   'DATA'),
  ('docutils\\writers\\s5_html\\themes\\default\\pretty.css',
   'C:\\Users\\gosza\\kiv_test\\pythonProject\\calc\\Lib\\site-packages\\docutils\\writers\\s5_html\\themes\\default\\pretty.css',
   'DATA'),
  ('docutils\\writers\\s5_html\\themes\\default\\slides.css',
   'C:\\Users\\gosza\\kiv_test\\pythonProject\\calc\\Lib\\site-packages\\docutils\\writers\\s5_html\\themes\\default\\slides.css',
   'DATA'),
  ('docutils\\writers\\html5_polyglot\\plain.css',
   'C:\\Users\\gosza\\kiv_test\\pythonProject\\calc\\Lib\\site-packages\\docutils\\writers\\html5_polyglot\\plain.css',
   'DATA'),
  ('docutils\\writers\\s5_html\\themes\\small-black\\__base__',
   'C:\\Users\\gosza\\kiv_test\\pythonProject\\calc\\Lib\\site-packages\\docutils\\writers\\s5_html\\themes\\small-black\\__base__',
   'DATA'),
  ('docutils\\parsers\\rst\\include\\isoamsc.txt',
   'C:\\Users\\gosza\\kiv_test\\pythonProject\\calc\\Lib\\site-packages\\docutils\\parsers\\rst\\include\\isoamsc.txt',
   'DATA'),
  ('docutils\\parsers\\rst\\include\\isocyr1.txt',
   'C:\\Users\\gosza\\kiv_test\\pythonProject\\calc\\Lib\\site-packages\\docutils\\parsers\\rst\\include\\isocyr1.txt',
   'DATA'),
  ('docutils\\parsers\\rst\\include\\isoamsr.txt',
   'C:\\Users\\gosza\\kiv_test\\pythonProject\\calc\\Lib\\site-packages\\docutils\\parsers\\rst\\include\\isoamsr.txt',
   'DATA'),
  ('docutils\\writers\\s5_html\\themes\\big-black\\pretty.css',
   'C:\\Users\\gosza\\kiv_test\\pythonProject\\calc\\Lib\\site-packages\\docutils\\writers\\s5_html\\themes\\big-black\\pretty.css',
   'DATA'),
  ('docutils\\parsers\\rst\\include\\isonum.txt',
   'C:\\Users\\gosza\\kiv_test\\pythonProject\\calc\\Lib\\site-packages\\docutils\\parsers\\rst\\include\\isonum.txt',
   'DATA'),
  ('docutils\\parsers\\rst\\include\\isopub.txt',
   'C:\\Users\\gosza\\kiv_test\\pythonProject\\calc\\Lib\\site-packages\\docutils\\parsers\\rst\\include\\isopub.txt',
   'DATA'),
  ('docutils\\writers\\s5_html\\themes\\default\\s5-core.css',
   'C:\\Users\\gosza\\kiv_test\\pythonProject\\calc\\Lib\\site-packages\\docutils\\writers\\s5_html\\themes\\default\\s5-core.css',
   'DATA'),
  ('docutils\\writers\\html5_polyglot\\tuftig.css',
   'C:\\Users\\gosza\\kiv_test\\pythonProject\\calc\\Lib\\site-packages\\docutils\\writers\\html5_polyglot\\tuftig.css',
   'DATA'),
  ('docutils\\writers\\s5_html\\themes\\README.txt',
   'C:\\Users\\gosza\\kiv_test\\pythonProject\\calc\\Lib\\site-packages\\docutils\\writers\\s5_html\\themes\\README.txt',
   'DATA'),
  ('docutils\\parsers\\rst\\include\\isoamsn.txt',
   'C:\\Users\\gosza\\kiv_test\\pythonProject\\calc\\Lib\\site-packages\\docutils\\parsers\\rst\\include\\isoamsn.txt',
   'DATA'),
  ('docutils\\parsers\\rst\\include\\isomfrk.txt',
   'C:\\Users\\gosza\\kiv_test\\pythonProject\\calc\\Lib\\site-packages\\docutils\\parsers\\rst\\include\\isomfrk.txt',
   'DATA'),
  ('docutils\\writers\\pep_html\\template.txt',
   'C:\\Users\\gosza\\kiv_test\\pythonProject\\calc\\Lib\\site-packages\\docutils\\writers\\pep_html\\template.txt',
   'DATA'),
  ('docutils\\writers\\html5_polyglot\\math.css',
   'C:\\Users\\gosza\\kiv_test\\pythonProject\\calc\\Lib\\site-packages\\docutils\\writers\\html5_polyglot\\math.css',
   'DATA'),
  ('docutils\\writers\\html5_polyglot\\minimal.css',
   'C:\\Users\\gosza\\kiv_test\\pythonProject\\calc\\Lib\\site-packages\\docutils\\writers\\html5_polyglot\\minimal.css',
   'DATA'),
  ('docutils\\writers\\s5_html\\themes\\small-white\\pretty.css',
   'C:\\Users\\gosza\\kiv_test\\pythonProject\\calc\\Lib\\site-packages\\docutils\\writers\\s5_html\\themes\\small-white\\pretty.css',
   'DATA'),
  ('docutils\\parsers\\rst\\include\\xhtml1-special.txt',
   'C:\\Users\\gosza\\kiv_test\\pythonProject\\calc\\Lib\\site-packages\\docutils\\parsers\\rst\\include\\xhtml1-special.txt',
   'DATA'),
  ('docutils\\writers\\s5_html\\themes\\medium-black\\__base__',
   'C:\\Users\\gosza\\kiv_test\\pythonProject\\calc\\Lib\\site-packages\\docutils\\writers\\s5_html\\themes\\medium-black\\__base__',
   'DATA'),
  ('docutils\\parsers\\rst\\include\\xhtml1-lat1.txt',
   'C:\\Users\\gosza\\kiv_test\\pythonProject\\calc\\Lib\\site-packages\\docutils\\parsers\\rst\\include\\xhtml1-lat1.txt',
   'DATA'),
  ('docutils\\parsers\\rst\\include\\isogrk3.txt',
   'C:\\Users\\gosza\\kiv_test\\pythonProject\\calc\\Lib\\site-packages\\docutils\\parsers\\rst\\include\\isogrk3.txt',
   'DATA'),
  ('docutils\\writers\\odf_odt\\styles.odt',
   'C:\\Users\\gosza\\kiv_test\\pythonProject\\calc\\Lib\\site-packages\\docutils\\writers\\odf_odt\\styles.odt',
   'DATA'),
  ('docutils\\writers\\latex2e\\default.tex',
   'C:\\Users\\gosza\\kiv_test\\pythonProject\\calc\\Lib\\site-packages\\docutils\\writers\\latex2e\\default.tex',
   'DATA'),
  ('docutils\\parsers\\rst\\include\\isogrk1.txt',
   'C:\\Users\\gosza\\kiv_test\\pythonProject\\calc\\Lib\\site-packages\\docutils\\parsers\\rst\\include\\isogrk1.txt',
   'DATA'),
  ('docutils\\parsers\\rst\\include\\isomopf-wide.txt',
   'C:\\Users\\gosza\\kiv_test\\pythonProject\\calc\\Lib\\site-packages\\docutils\\parsers\\rst\\include\\isomopf-wide.txt',
   'DATA'),
  ('docutils\\parsers\\rst\\include\\isolat1.txt',
   'C:\\Users\\gosza\\kiv_test\\pythonProject\\calc\\Lib\\site-packages\\docutils\\parsers\\rst\\include\\isolat1.txt',
   'DATA'),
  ('docutils\\writers\\s5_html\\themes\\big-black\\framing.css',
   'C:\\Users\\gosza\\kiv_test\\pythonProject\\calc\\Lib\\site-packages\\docutils\\writers\\s5_html\\themes\\big-black\\framing.css',
   'DATA'),
  ('docutils\\writers\\latex2e\\titlepage.tex',
   'C:\\Users\\gosza\\kiv_test\\pythonProject\\calc\\Lib\\site-packages\\docutils\\writers\\latex2e\\titlepage.tex',
   'DATA'),
  ('docutils\\writers\\s5_html\\themes\\medium-white\\framing.css',
   'C:\\Users\\gosza\\kiv_test\\pythonProject\\calc\\Lib\\site-packages\\docutils\\writers\\s5_html\\themes\\medium-white\\framing.css',
   'DATA'),
  ('docutils\\writers\\s5_html\\themes\\big-white\\framing.css',
   'C:\\Users\\gosza\\kiv_test\\pythonProject\\calc\\Lib\\site-packages\\docutils\\writers\\s5_html\\themes\\big-white\\framing.css',
   'DATA'),
  ('docutils\\parsers\\rst\\include\\isogrk4.txt',
   'C:\\Users\\gosza\\kiv_test\\pythonProject\\calc\\Lib\\site-packages\\docutils\\parsers\\rst\\include\\isogrk4.txt',
   'DATA'),
  ('docutils\\writers\\s5_html\\themes\\default\\print.css',
   'C:\\Users\\gosza\\kiv_test\\pythonProject\\calc\\Lib\\site-packages\\docutils\\writers\\s5_html\\themes\\default\\print.css',
   'DATA'),
  ('docutils\\writers\\pep_html\\pep.css',
   'C:\\Users\\gosza\\kiv_test\\pythonProject\\calc\\Lib\\site-packages\\docutils\\writers\\pep_html\\pep.css',
   'DATA'),
  ('docutils\\parsers\\rst\\include\\isobox.txt',
   'C:\\Users\\gosza\\kiv_test\\pythonProject\\calc\\Lib\\site-packages\\docutils\\parsers\\rst\\include\\isobox.txt',
   'DATA'),
  ('docutils\\writers\\s5_html\\themes\\default\\opera.css',
   'C:\\Users\\gosza\\kiv_test\\pythonProject\\calc\\Lib\\site-packages\\docutils\\writers\\s5_html\\themes\\default\\opera.css',
   'DATA'),
  ('docutils\\writers\\s5_html\\themes\\medium-white\\pretty.css',
   'C:\\Users\\gosza\\kiv_test\\pythonProject\\calc\\Lib\\site-packages\\docutils\\writers\\s5_html\\themes\\medium-white\\pretty.css',
   'DATA'),
  ('docutils\\writers\\s5_html\\themes\\default\\slides.js',
   'C:\\Users\\gosza\\kiv_test\\pythonProject\\calc\\Lib\\site-packages\\docutils\\writers\\s5_html\\themes\\default\\slides.js',
   'DATA'),
  ('docutils\\parsers\\rst\\include\\isoamsa.txt',
   'C:\\Users\\gosza\\kiv_test\\pythonProject\\calc\\Lib\\site-packages\\docutils\\parsers\\rst\\include\\isoamsa.txt',
   'DATA'),
  ('docutils\\writers\\latex2e\\docutils.sty',
   'C:\\Users\\gosza\\kiv_test\\pythonProject\\calc\\Lib\\site-packages\\docutils\\writers\\latex2e\\docutils.sty',
   'DATA'),
  ('docutils\\writers\\s5_html\\themes\\big-black\\__base__',
   'C:\\Users\\gosza\\kiv_test\\pythonProject\\calc\\Lib\\site-packages\\docutils\\writers\\s5_html\\themes\\big-black\\__base__',
   'DATA'),
  ('docutils\\writers\\html4css1\\html4css1.css',
   'C:\\Users\\gosza\\kiv_test\\pythonProject\\calc\\Lib\\site-packages\\docutils\\writers\\html4css1\\html4css1.css',
   'DATA'),
  ('docutils\\writers\\s5_html\\themes\\default\\framing.css',
   'C:\\Users\\gosza\\kiv_test\\pythonProject\\calc\\Lib\\site-packages\\docutils\\writers\\s5_html\\themes\\default\\framing.css',
   'DATA'),
  ('docutils\\writers\\html4css1\\template.txt',
   'C:\\Users\\gosza\\kiv_test\\pythonProject\\calc\\Lib\\site-packages\\docutils\\writers\\html4css1\\template.txt',
   'DATA')],)
