('C:\\Users\\gosza\\kiv_test\\pythonProject\\calc\\share\\glew\\bin',
 None,
 [],
 'DATA',
 [('glew32.dll',
   'C:\\Users\\gosza\\kiv_test\\pythonProject\\calc\\share\\glew\\bin\\glew32.dll',
   'DATA')])
